-ень: 'ень', 'ня', 'ню', '', 'нем', 'не', 'ни', 'нем', 'ням', 'нями', 'нях'
-ешек: 'ешек', 'ешка', 'ешку', '', 'ешкой', 'ешках', 'ешки', 'ешков', 'ешкам', 'ешками', 'ешках'
по-...-им: 'им', 'има', 'иму', '', 'имом', 'име', 'имы', 'имов', 'имам', 'имами', 'имах'
-ль: 'ль', 'ли', 'ли', '', 'лью', 'ли', 'ли', 'лей', 'лям', 'лями', 'лях'
-льц(е): 'льце', 'льца', 'льцу', '', 'льцем', 'льце', 'льца', 'лец', 'льцам', 'льцами', 'льцах'
-н(и): 'ни', '', '', '', '', '', 'ни', 'ней', 'ням', 'нями', 'них'
-нь: 'нь', 'ни', 'ни', '', 'нью', 'ни', 'ни', 'ней', 'ням', 'нями', 'нях'
-оль: 'оль', 'оли', 'оли', '', 'олью', 'оли', 'оли', 'олей', 'олям', 'олями', 'олях'
-от: 'от', 'ота', 'оту', '', 'отом', 'оте', 'оты', 'отов', 'отам', 'отами', 'отах'
-оть: 'оть', 'оти', 'оти', '', 'отью', 'оти', 'оти', 'отей', 'отям', 'отями', 'отях'
-ошь: 'ошь', 'оши', 'оши', '', 'ошью', 'оши', 'оши', 'ошей', 'ошам', 'ошами', 'ошах'
-сн(я): 'сня', 'сни', 'сне', 'сню', 'сней', 'сне', 'сни', 'сен', 'сням', 'снями', 'снях'
-снь: 'снь', 'сни', 'сни', '', 'снью', 'сни', 'сни', 'сен', 'сням', 'снями', 'снях'
-ть: 'ть', 'ти', 'ти', '', 'тью', 'ти', 'ти', 'тей', 'тям', 'тями', 'тях'
-юх: 'юх', 'юха', 'юху', '', 'юхом', 'юхе', 'юхи', 'юхов', 'юхам', 'юхами', 'юхах'