по-...-ень: 'ень', 'ня', 'ню', '', 'нем', 'не', 'ни', 'нем', 'ням', 'нями', 'нях'
при-...-ень: 'ень', 'ня', 'ню', '', 'нем', 'не', 'ни', 'нем', 'ням', 'нями', 'нях'
па-...-иц(а): 'ица', 'ицы', 'ице', 'ицу', 'ицей', 'ице', 'ицы', 'иц', 'ицах', 'ицей', 'ицах'
су-...-иц(а): 'ица', 'ицы', 'ице', 'ицу', 'ицей', 'ице', 'ицы', 'иц', 'ицах', 'ицей', 'ицах'
за-...-к(и): 'ки', '', '', '', '', '', 'ки', 'ок', 'кам', 'ками', 'ках'
не-...-ль: 'ль', 'ли', 'ли', '', 'лью', 'ли', 'ли', 'лей', 'лям', 'лями', 'лях'
на-...-н(ая): 'ная', 'ной', 'ной', '', 'ной', 'ной', 'ные', 'ных', 'ным', 'ными', 'ных'
па-...-ок: 'ок', 'ка', 'ку', '', 'ком', 'ке', 'ки', 'ков', 'кам', 'ками', 'ках'