-бищ(е): 'бище', 'бища', 'бищу', '', 'бищем', 'бище', 'бища', 'бищ', 'бищам', 'бищами', 'бищах'
бес-...-еник: 'еник', 'еника', 'енику', '', 'еником', 'енике', 'еники', 'еников', 'еникам', 'ениками', 'ениках'
-ённость: 'ённость', 'ённости', 'ённости', '', 'ённостью', 'ённости', 'ённости', 'ённостей', 'ённостям', 'ённостями', 'ённостях'
со-...-еств(о): 'ество', 'ества', 'еству', '', 'еством', 'естве', 'ества', 'еств', 'ествам', 'ествами', 'ествах'
со-...-ец: 'ец', 'ца', 'цу', '', 'цом', 'це', 'цы', 'цов', 'цам', 'цами', 'цах'
-ечк(о): 'ечко', 'ечка', 'ечку', '', 'ечком', 'ечке', 'ечки', 'ечек', 'ечкам', 'ечками', 'ечках'
-знь: 'знь', 'зни', 'зни', '', 'знью', 'зни', 'зни', 'зней', 'зням', 'знями', 'знях'
-ик(и): 'ики', '', '', '', '', '', 'ики', 'иков', 'икам', 'иками', 'иках'
-ик(о): 'ико', 'ика', 'ику', '', 'иком', 'ике', 'ики', 'иков', 'икам', 'иками', 'иках'
по-...-ин(а): 'ина', 'ины', 'ине', 'ину', 'иной', 'ине', 'ины', 'ин', 'инам', 'инами', 'инах'
пере-...-ин(а): 'ина', 'ины', 'ине', 'ину', 'иной', 'ине', 'ины', 'ин', 'инам', 'инами', 'инах'
-инг: 'инг', 'инга', 'ингу', '', 'ингом', 'инге', 'инги', 'ингов', 'ингам', 'ингами', 'ингах'
-иj: 'и', 'ия', 'ию', '', 'ием', 'ие', 'ии', 'иев', 'иям', 'иями', 'иях'
из-...-иj(е): 'ие', 'ия', 'ию', '', 'ием', 'ие', 'ия', 'иев', 'иям', 'иями', 'иях'
после-...-иj(е): 'ие', 'ия', 'ию', '', 'ием', 'ие', 'ия', 'иев', 'иям', 'иями', 'иях'
преди-...-иj(е): 'ие', 'ия', 'ию', '', 'ием', 'ие', 'ия', 'иев', 'иям', 'иями', 'иях'
не-...-иj(е): 'ие', 'ия', 'ию', '', 'ием', 'ие', 'ия', 'иев', 'иям', 'иями', 'иях'
раз-...-иц(а): 'ица', 'ицы', 'ице', 'ицу', 'ицей', 'ице', 'ицы', 'иц', 'ицах', 'ицей', 'ицах'
по-...-к(а): 'ка', 'ки', 'ке', 'ку', 'кой', 'ке', 'ки', 'ок', 'кам', 'ками', 'ках'
под-...-к(а): 'ка', 'ки', 'ке', 'ку', 'кой', 'ке', 'ки', 'ок', 'кам', 'ками', 'ках'
при-...-к(а): 'ка', 'ки', 'ке', 'ку', 'кой', 'ке', 'ки', 'ок', 'кам', 'ками', 'ках'
не-...-к(а): 'ка', 'ки', 'ке', 'ку', 'кой', 'ке', 'ки', 'ок', 'кам', 'ками', 'ках'
пере-...-к(а): 'ка', 'ки', 'ке', 'ку', 'кой', 'ке', 'ки', 'ок', 'кам', 'ками', 'ках'
у-...-к(а): 'ка', 'ки', 'ке', 'ку', 'кой', 'ке', 'ки', 'ок', 'кам', 'ками', 'ках'
-лищ(е): 'лище', 'лища', 'лищу', '', 'лищем', 'лище', 'лища', 'лищ', 'лищам', 'лищами', 'лищах'
-ловк(а): 'ловка', 'ловки', 'ловке', 'ловку', 'ловкой', 'ловке', 'ловки', 'ловок', 'ловкам', 'ловками', 'ловках'
-льн(я): 'льня', 'льни', 'льне', 'льню', 'льней', 'льне', 'льни', 'лен', 'льням', 'льнями', 'льнях'
на-...-льн(я): 'льня', 'льни', 'льне', 'льню', 'льней', 'льне', 'льни', 'лен', 'льням', 'льнями', 'льнях'
-льщин(а): 'льщина', 'льщины', 'льщине', 'льщину', 'льщиной', 'льщине', 'льщины', 'льщин', 'льщинам', 'льщинами', 'льщинах'
не-...-льщин(а): 'льщина', 'льщины', 'льщине', 'льщину', 'льщиной', 'льщине', 'льщины', 'льщин', 'льщинам', 'льщинами', 'льщинах'
с-...-ник: 'ник', 'ника', 'нику', '', 'ником', 'нике', 'ники', 'ников', 'никам', 'никами', 'никах'
не-...-ник: 'ник', 'ника', 'нику', '', 'ником', 'нике', 'ники', 'ников', 'никам', 'никами', 'никах'
не-...-ниj(е): 'ние', 'ния', 'нию', '', 'нием', 'ние', 'ния', 'ний', 'ниям', 'ниями', 'ниях'
-нность: 'нность', 'нности', 'нности', '', 'нностью', 'нности', 'нности', 'нностей', 'нностям', 'нностями', 'нностях'
по-...-нность: 'нность', 'нности', 'нности', '', 'нностью', 'нности', 'нности', 'нностей', 'нностям', 'нностями', 'нностях'
бес-...-ок: 'ок', 'ка', 'ку', '', 'ком', 'ке', 'ки', 'ков', 'кам', 'ками', 'ках'
по-...-ок: 'ок', 'ка', 'ку', '', 'ком', 'ке', 'ки', 'ков', 'кам', 'ками', 'ках'
пред-...-ок: 'ок', 'ка', 'ку', '', 'ком', 'ке', 'ки', 'ков', 'кам', 'ками', 'ках'
пере-...-ок: 'ок', 'ка', 'ку', '', 'ком', 'ке', 'ки', 'ков', 'кам', 'ками', 'ках'
-с(а): 'са', 'сы', 'се', 'су', 'сой', 'се', 'сы', 'с', 'сам', 'сами', 'сах'
противо-...-ств(о): 'ство', 'ства', 'ству', '', 'ством', 'стве', 'ства', 'ств', 'ствам', 'ствами', 'ствах'
-тв(а): 'тва', 'твы', 'тве', 'тву', 'твой', 'тве', 'твы', 'тв', 'твам', 'твами', 'твах'
со-...-тель: 'тель', 'теля', 'телю', '', 'телем', 'теле', 'тели', 'телей', 'телям', 'телями', 'телях'
-тельниц(а): 'тельница', 'тельницы', 'тельнице', 'тельницу', 'тельницей', 'тельнице', 'тельницы', 'тельниц', 'тельницам', 'тельницами', 'тельницах'
со-...-тиj(е): 'тие', 'тия', 'тию', '', 'тием', 'тие', 'тия', 'тий', 'тиям', 'тиями', 'тиях'
-тор: 'тор', 'тора', 'тору', '', 'тором', 'торе', 'торы', 'торов', 'торам', 'торами', 'торах'
-тость: 'тость', 'тости', 'тости', '', 'тостью', 'тости', 'тости', 'тостей', 'тостям', 'тостями', 'тостях'
-х(а): 'ха', 'хи', 'хе', 'ху', 'хой', 'хе', 'хи', 'х', 'хам', 'хами', 'хах'
не-...-х(а): 'ха', 'хи', 'хе', 'ху', 'хой', 'хе', 'хи', 'х', 'хам', 'хами', 'хах'
-циj(я): 'ция', 'ции', 'цие', 'цию', 'цией', 'цие', 'ции', 'ций', 'циям', 'циями', 'циях'
-ч(ий): 'чий', 'чего', 'чему', '', 'чим', 'чем', 'чие', 'чих', 'чим', 'чими', 'чих'
по-...-чик: 'чик', 'чика', 'чику', '', 'чиком', 'чике', 'чики', 'чиков', 'чикам', 'чиками', 'чиках'
-чк(а): 'чка', 'чки', 'чке', 'чку', 'чкой', 'чке', 'чки', 'чек', 'чкам', 'чками', 'чках'
-ышек: 'ышек', 'ышка', 'ышку', '', 'ышком', 'ышке', 'ышки', 'ышков', 'ышкам', 'ышками', 'ышках'
-ышк(о): 'ышко', 'ышка', 'ышку', '', 'ышком', 'ышке', 'ышки', 'ышек', 'ышкам', 'ышками', 'ышках'
-ышн(я): 'ышня', 'ышни', 'ышне', 'ышню', 'ышней', 'ышне', 'ышни', 'ышень', 'ышням', 'ышнями', 'ышнях'
из-...-ьj(е): 'ье', 'ья', 'ью', '', 'ьем', 'ье', 'ья', 'ьев', 'ьям', 'ьями', 'ьях'
у-...-ьj(е): 'ье', 'ья', 'ью', '', 'ьем', 'ье', 'ья', 'ьев', 'ьям', 'ьями', 'ьях'