-амент: 'амент', 'амента', 'аменту', '', 'аментом', 'аменте', 'аменты', 'аментов', 'аментам', 'аментами', 'аментах'
-арад: 'арад', 'арада', 'араду', '', 'арадом', 'араде', 'арады', 'арадов', 'арадам', 'арадами', 'арадах'
-атур(а): 'атура', 'атуры', 'атуре', 'атуру', 'атурой', 'атуре', 'атуры', 'атур', 'атурам', 'атурами', 'атурах'
-алеj: 'алей', 'алея', 'алею', '', 'алеем', 'алее', 'алеи', 'алеев', 'алеям', 'алеями', 'алеях'
-иад(а): 'иада', 'иады', 'иаде', 'иаду', 'иадой', 'иаде', 'иады', 'иад', 'иадам', 'иадами', 'иадах'
-иан-ин: 'ианин', 'ианина', 'ианину', '', 'ианином', 'ианине', 'иане', 'иан', 'ианам', 'ианами', 'ианах'
-иан(а): 'иана', 'ианы', 'иане', 'иану', 'ианой', 'иане', 'ианы', 'иан', 'ианам', 'ианами', 'ианах'
-инчан-ин: 'инчанин', 'инчанина', 'инчанину', '', 'инчанином', 'инчанине', 'инчане', 'инчан', 'инчанам', 'инчанами', 'инчанах'
-итет: 'итет', 'итета', 'итету', '', 'итетом', 'итете', 'итеты', 'итетов', 'итетам', 'итетами', 'итетах'
-итур(а): 'итура', 'итуры', 'итуре', 'итуру', 'итурой', 'итуре', 'итуры', 'итур', 'итурам', 'итурами', 'итурах'
-итян-ин: 'итянин', 'итянина', 'итянину', '', 'итянином', 'итянине', 'итяне', 'итян', 'итянам', 'итянами', 'итянах'
-ичан-ин: 'ичанин', 'ичанина', 'ичанину', '', 'ичанином', 'ичанине', 'ичане', 'ичан', 'ичанам', 'ичанами', 'ичанах'
-овиц(а): 'овица', 'овицы', 'овице', 'овицу', 'овицей', 'овице', 'овицы', 'овиц', 'овицам', 'овицами', 'овицах'
-овчан-ин: 'овчанин', 'овчанина', 'овчанину', '', 'овчанином', 'овчанине', 'овчане', 'овчан', 'овчанам', 'овчанами', 'овчанах'
-уган: 'уган', 'угана', 'угану', '', 'уганом', 'угане', 'уганы', 'уганов', 'уганам', 'уганами', 'уганах'
-юган: 'юган', 'югана', 'югану', '', 'юганом', 'югане', 'юганы', 'юганов', 'юганам', 'юганами', 'юганах'
-ачеj: 'ачей', 'ачея', 'ачею', '', 'ачеем', 'ачее', 'ачеи', 'ачеев', 'ачеям', 'ачеями', 'ачеях'
-еваниj(е): 'евание', 'евания', 'еванию', '', 'еванием', 'евании', 'евания', 'еваний', 'еваниям', 'еваниями', 'еваниях'
-емент: 'емент', 'емента', 'ементу', '', 'ементом', 'ементе', 'ементы', 'ементов', 'ементам', 'ементами', 'ементах'
-енит: 'енит', 'енита', 'ениту', '', 'енитом', 'ените', 'ениты', 'енитов', 'енитам', 'енитами', 'енитах'
-иат: 'иат', 'иата', 'иату', '', 'иатом', 'иате', 'иаты', 'иатов', 'иатам', 'иатами', 'иатах'
-изациj(я): 'изация', 'изации', 'изации', 'изацию', 'изацией', 'изацие', 'изации', 'изаций', 'изациям', 'изациями', 'изациях'
-инит: 'инит', 'инита', 'иниту', '', 'инитом', 'ините', 'иниты', 'инитов', 'инитам', 'инитами', 'инитах'
-иот: 'иот', 'иота', 'иоту', '', 'иотом', 'иоте', 'иоты', 'иотов', 'иотам', 'иотами', 'иотах'
-иян: 'иян', 'ияна', 'ияну', '', 'ияном', 'ияне', 'ияны', 'иянов', 'иянам', 'иянами', 'иянах'
-ованиj(е): 'ование', 'ования', 'ованию', '', 'ованием', 'ование', 'ования', 'ованиев', 'ованиям', 'ованиями', 'ованиях'
-овищ(е): 'овище', 'овища', 'овищу', '', 'овищем', 'овище', 'овища', 'овищ', 'овищам', 'овищами', 'овищах'
-онер: 'онер', 'онера', 'онеру', '', 'онером', 'онере', 'онеры', 'онеров', 'онерам', 'онерами', 'онерах'
-онизм: 'онизм', 'онизма', 'онизму', '', 'онизмом', 'онизме', 'онизмы', 'онизмов', 'онизмам', 'онизмами', 'онизмах'
-очеj: 'очей', 'очея', 'очею', '', 'очеем', 'очее', 'очеи', 'очеев', 'очеям', 'очеями', 'очеях'